Spring 2026 Slides
…
.panel1-tidyverse-auto[

``` r
library(tidyverse)
library(ggraph)

# data cleaning
*as_tibble(tools::CRAN_package_db())
```
]
 
.panel2-tidyverse-auto[

```
# A tibble: 23,483 × 69
   Package  Version Priority Depends Imports LinkingTo Suggests Enhances License
   <chr>    <chr>   <chr>    <chr>   <chr>   <chr>     <chr>    <chr>    <chr>  
 1 a5R      0.3.1   <NA>     R (>= … cli, r… <NA>      "arrow,… <NA>     Apache…
 2 aae.pop  0.2.0   <NA>     R (>= … stats,… <NA>      "knitr,… <NA>     Apache…
 3 AalenJo… 1.0     <NA>     <NA>    <NA>    <NA>      "knitr,… <NA>     GPL (>…
 4 aamatch  0.4.5   <NA>     R (>= … iTOS, … <NA>      "DOS2, … <NA>     GPL-2  
 5 AATtools 0.0.3   <NA>     R (>= … magrit… <NA>       <NA>    <NA>     GPL-3  
 6 ABACUS   1.0.0   <NA>     R (>= … ggplot… <NA>      "rmarkd… <NA>     GPL-3  
 7 abasequ… 0.1.0   <NA>     <NA>    <NA>    <NA>       <NA>    <NA>     GPL-3  
 8 abbrevi… 0.1     <NA>     <NA>    <NA>    <NA>      "testth… <NA>     GPL-3  
 9 abc      2.2.2   <NA>     R (>= … <NA>    <NA>       <NA>    <NA>     GPL (>…
10 abc.data 1.1     <NA>     R (>= … <NA>    <NA>       <NA>    <NA>     GPL (>…
# ℹ 23,473 more rows
# ℹ 60 more variables: License_is_FOSS <chr>, License_restricts_use <chr>,
#   OS_type <chr>, Archs <chr>, MD5sum <chr>, NeedsCompilation <chr>,
#   Additional_repositories <chr>, Author <chr>, `Authors@R` <chr>,
#   Biarch <chr>, BugReports <chr>, BuildKeepEmpty <chr>, BuildManual <chr>,
#   BuildResaveData <chr>, BuildVignettes <chr>, Built <chr>,
#   ByteCompile <chr>, `Classification/ACM` <chr>, …
```
…
.panel2-tidyverse-auto[

```
# A tibble: 75 × 2
   Package Author                                                               
   <chr>   <chr>                                                                
 1 dplyr   "Hadley Wickham*aut, cre* (ORCID:"                                   
 2 dplyr   "    <https://orcid.org/0000-0003-4757-117X>),"                      
 3 dplyr   "  Romain François*aut* (ORCID: <https://orcid.org/0000-0002-2444-42…
 4 dplyr   "  Lionel Henry*aut*,"                                               
 5 dplyr   "  Kirill Müller*aut* (ORCID: <https://orcid.org/0000-0002-1416-3412…
 6 dplyr   "  Davis Vaughan*aut* (ORCID: <https://orcid.org/0000-0003-4777-038X…
 7 dplyr   "  Posit Software, PBC*cph, fnd*"                                    
 8 ellmer  "Hadley Wickham*aut, cre* (ORCID:"                                   
 9 ellmer  "    <https://orcid.org/0000-0003-4757-117X>),"                      
10 ellmer  "  Joe Cheng*aut*,"                                                  
# ℹ 65 more rows
```
…
.panel2-tidyverse-auto[

```
# A tibble: 75 × 2
   Package Author                                   
   <chr>   <chr>                                    
 1 dplyr   Hadley Wickham                           
 2 dplyr   <https://orcid.org/0000-0003-4757-117X>),
 3 dplyr   Romain François                          
 4 dplyr   Lionel Henry                             
 5 dplyr   Kirill Müller                            
 6 dplyr   Davis Vaughan                            
 7 dplyr   Posit Software, PBC                      
 8 ellmer  Hadley Wickham                           
 9 ellmer  <https://orcid.org/0000-0003-4757-117X>),
10 ellmer  Joe Cheng                                
# ℹ 65 more rows
```
…
.panel2-tidyverse-auto[

```
# A tibble: 67 × 2
   Package Author             
   <chr>   <chr>              
 1 dplyr   Hadley Wickham     
 2 dplyr   Romain François    
 3 dplyr   Lionel Henry       
 4 dplyr   Kirill Müller      
 5 dplyr   Davis Vaughan      
 6 dplyr   Posit Software, PBC
 7 ellmer  Hadley Wickham     
 8 ellmer  Joe Cheng          
 9 ellmer  Aaron Jacobs       
10 ellmer  Garrick Aden-Buie  
# ℹ 57 more rows
```
…
.panel2-tidyverse-auto[

```
# A tibble: 57 × 2
   Package Author           
   <chr>   <chr>            
 1 dplyr   Hadley Wickham   
 2 dplyr   Romain François  
 3 dplyr   Lionel Henry     
 4 dplyr   Kirill Müller    
 5 dplyr   Davis Vaughan    
 6 ellmer  Hadley Wickham   
 7 ellmer  Joe Cheng        
 8 ellmer  Aaron Jacobs     
 9 ellmer  Garrick Aden-Buie
10 ellmer  Barret Schloerke 
# ℹ 47 more rows
```
…
.panel2-tidyverse-auto[

```
# A tibble: 56 × 2
   Package Author           
   <chr>   <chr>            
 1 dplyr   Hadley Wickham   
 2 dplyr   Romain François  
 3 dplyr   Lionel Henry     
 4 dplyr   Kirill Müller    
 5 dplyr   Davis Vaughan    
 6 ellmer  Hadley Wickham   
 7 ellmer  Joe Cheng        
 8 ellmer  Aaron Jacobs     
 9 ellmer  Garrick Aden-Buie
10 ellmer  Barret Schloerke 
# ℹ 46 more rows
```
…
# network visualization
*package_author_data
```
]
 
.panel2-tidyverse-auto[

```
# A tibble: 56 × 2
   Package Author           
   <chr>   <chr>            
 1 dplyr   Hadley Wickham   
 2 dplyr   Romain François  
 3 dplyr   Lionel Henry     
 4 dplyr   Kirill Müller    
 5 dplyr   Davis Vaughan    
 6 ellmer  Hadley Wickham   
 7 ellmer  Joe Cheng        
 8 ellmer  Aaron Jacobs     
 9 ellmer  Garrick Aden-Buie
10 ellmer  Barret Schloerke 
# ℹ 46 more rows
```
…
---

count: false

.panel1-ggdims-auto[

``` r
*package_author_data
```
]
 
.panel2-ggdims-auto[

```
# A tibble: 56 × 2
   Package Author           
   <chr>   <chr>            
 1 dplyr   Hadley Wickham   
 2 dplyr   Romain François  
 3 dplyr   Lionel Henry     
 4 dplyr   Kirill Müller    
 5 dplyr   Davis Vaughan    
 6 ellmer  Hadley Wickham   
 7 ellmer  Joe Cheng        
 8 ellmer  Aaron Jacobs     
 9 ellmer  Garrick Aden-Buie
10 ellmer  Barret Schloerke 
# ℹ 46 more rows
```
…
