tables and data wrangling
…
is the gapminder data tidy?

library(gapminder)
gapminder

# A tibble: 1,704 × 8
   country     continent  year lifeExp    pop gdpPercap life_exp_cats income_cat
   <fct>       <fct>     <int>   <dbl>  <int>     <dbl> <chr>         <chr>     
 1 Afghanistan Asia       1952    28.8 8.43e6      779. Short Life E… Low Income
 2 Afghanistan Asia       1957    30.3 9.24e6      821. Short Life E… Low Income
 3 Afghanistan Asia       1962    32.0 1.03e7      853. Short Life E… Low Income
 4 Afghanistan Asia       1967    34.0 1.15e7      836. Short Life E… Low Income
 5 Afghanistan Asia       1972    36.1 1.31e7      740. Short Life E… Low Income
 6 Afghanistan Asia       1977    38.4 1.49e7      786. Short Life E… Low Income
 7 Afghanistan Asia       1982    39.9 1.29e7      978. Short Life E… Low Income
 8 Afghanistan Asia       1987    40.8 1.39e7      852. Short Life E… Low Income
 9 Afghanistan Asia       1992    41.7 1.63e7      649. Short Life E… Low Income
10 Afghanistan Asia       1997    41.8 2.22e7      635. Short Life E… Low Income
# ℹ 1,694 more rows
…
Full data set, for reference

library(gapminder)
gapminder

# A tibble: 1,704 × 8
   country     continent  year lifeExp    pop gdpPercap life_exp_cats income_cat
   <fct>       <fct>     <int>   <dbl>  <int>     <dbl> <chr>         <chr>     
 1 Afghanistan Asia       1952    28.8 8.43e6      779. Short Life E… Low Income
 2 Afghanistan Asia       1957    30.3 9.24e6      821. Short Life E… Low Income
 3 Afghanistan Asia       1962    32.0 1.03e7      853. Short Life E… Low Income
 4 Afghanistan Asia       1967    34.0 1.15e7      836. Short Life E… Low Income
 5 Afghanistan Asia       1972    36.1 1.31e7      740. Short Life E… Low Income
 6 Afghanistan Asia       1977    38.4 1.49e7      786. Short Life E… Low Income
 7 Afghanistan Asia       1982    39.9 1.29e7      978. Short Life E… Low Income
 8 Afghanistan Asia       1987    40.8 1.39e7      852. Short Life E… Low Income
 9 Afghanistan Asia       1992    41.7 1.63e7      649. Short Life E… Low Income
10 Afghanistan Asia       1997    41.8 2.22e7      635. Short Life E… Low Income
# ℹ 1,694 more rows
…
