Lab - Conflicts over resources: the case of Chile and Peru
…
your answer

Name a cleaning/manipulation move that we saw last class:

your answer

Purposeful data manipulation

library(countrycode)

clean_csv_url <- "https://raw.githubusercontent.com/tidyverse/datascience-box/f807e7835d456e63ab45a39c931003655dc5ce48/course-materials/lab-instructions/lab-06/data/fisheries.csv"

read_csv(clean_csv_url) 

# A tibble: 216 × 4
   country             capture aquaculture  total
   <chr>                 <dbl>       <dbl>  <dbl>
 1 Afghanistan            1000        1200   2200
 2 Albania                7886         950   8836
 3 Algeria               95000        1361  96361
 4 American Samoa         3047          20   3067
 5 Andorra                   0           0      0
 6 Angola               486490         655 487145
 7 Antigua and Barbuda    3000          10   3010
 8 Argentina            755226        3673 758899
 9 Armenia                3758       16381  20139
10 Aruba                   142           0    142
# ℹ 206 more rows
…
Executing the code above, which uses distinct. How many regions are there?

answer here

Now change out distinct with count above, and execute the code again. How many observations in our fisheries data are classified as being in “North America”.

answer here

Mentally, guess what the North American countries those are, and modify the code below to check those assumptions.

fisheries |> 
  filter(region == "Europe & Central Asia")  ## Change the filtering to check on North America

# A tibble: 58 × 5
   country                region                capture aquaculture total
   <chr>                  <chr>                   <dbl>       <dbl> <dbl>
 1 Albania                Europe & Central Asia    7886         950  8836
 2 Andorra                Europe & Central Asia       0           0     0
 3 Armenia                Europe & Central Asia    3758       16381 20139
 4 Austria                Europe & Central Asia     350        3483  3833
 5 Azerbaijan             Europe & Central Asia     676         640  1316
 6 Belarus                Europe & Central Asia     686       11199 11885
 7 Belgium                Europe & Central Asia   26970          44 27014
 8 Bosnia and Herzegovina Europe & Central Asia     305        4564  4869
 9 Bulgaria               Europe & Central Asia    8614       15762 24376
10 Croatia                Europe & Central Asia   72312       15805 88117
# ℹ 48 more rows

What are the North American Countries?

answer here

Some wrangling practice/exercises

Target #1

In the code chunk below, select only the country and capture variables

fisheries

# A tibble: 216 × 5
   country             region                     capture aquaculture  total
   <chr>               <chr>                        <dbl>       <dbl>  <dbl>
 1 Afghanistan         South Asia                    1000        1200   2200
 2 Albania             Europe & Central Asia         7886         950   8836
 3 Algeria             Middle East & North Africa   95000        1361  96361
 4 American Samoa      East Asia & Pacific           3047          20   3067
 5 Andorra             Europe & Central Asia            0           0      0
 6 Angola              Sub-Saharan Africa          486490         655 487145
 7 Antigua and Barbuda Latin America & Caribbean     3000          10   3010
 8 Argentina           Latin America & Caribbean   755226        3673 758899
 9 Armenia             Europe & Central Asia         3758       16381  20139
10 Aruba               Latin America & Caribbean      142           0    142
# ℹ 206 more rows

Target #2

filter() to the rows where total is zero (remember == is for conditions, and = is for assignment.

fisheries 

# A tibble: 216 × 5
   country             region                     capture aquaculture  total
   <chr>               <chr>                        <dbl>       <dbl>  <dbl>
 1 Afghanistan         South Asia                    1000        1200   2200
 2 Albania             Europe & Central Asia         7886         950   8836
 3 Algeria             Middle East & North Africa   95000        1361  96361
 4 American Samoa      East Asia & Pacific           3047          20   3067
 5 Andorra             Europe & Central Asia            0           0      0
 6 Angola              Sub-Saharan Africa          486490         655 487145
 7 Antigua and Barbuda Latin America & Caribbean     3000          10   3010
 8 Argentina           Latin America & Caribbean   755226        3673 758899
 9 Armenia             Europe & Central Asia         3758       16381  20139
10 Aruba               Latin America & Caribbean      142           0    142
# ℹ 206 more rows

Which countries have zero fish production via aquaculture or capture?

Your answer here

Target #3

Now, use filter_out() to drop cases where total is zero. (Note: We didn’t see filter_out on Monday…)

fisheries 

# A tibble: 216 × 5
   country             region                     capture aquaculture  total
   <chr>               <chr>                        <dbl>       <dbl>  <dbl>
 1 Afghanistan         South Asia                    1000        1200   2200
 2 Albania             Europe & Central Asia         7886         950   8836
 3 Algeria             Middle East & North Africa   95000        1361  96361
 4 American Samoa      East Asia & Pacific           3047          20   3067
 5 Andorra             Europe & Central Asia            0           0      0
 6 Angola              Sub-Saharan Africa          486490         655 487145
 7 Antigua and Barbuda Latin America & Caribbean     3000          10   3010
 8 Argentina           Latin America & Caribbean   755226        3673 758899
 9 Armenia             Europe & Central Asia         3758       16381  20139
10 Aruba               Latin America & Caribbean      142           0    142
# ℹ 206 more rows

Target #4

Using mutate(), create a new variable my_total that sums aquaculture and capture. Inspect that this is the same as the fisheries dataset total.

fisheries

# A tibble: 216 × 5
   country             region                     capture aquaculture  total
   <chr>               <chr>                        <dbl>       <dbl>  <dbl>
 1 Afghanistan         South Asia                    1000        1200   2200
 2 Albania             Europe & Central Asia         7886         950   8836
 3 Algeria             Middle East & North Africa   95000        1361  96361
 4 American Samoa      East Asia & Pacific           3047          20   3067
 5 Andorra             Europe & Central Asia            0           0      0
 6 Angola              Sub-Saharan Africa          486490         655 487145
 7 Antigua and Barbuda Latin America & Caribbean     3000          10   3010
 8 Argentina           Latin America & Caribbean   755226        3673 758899
 9 Armenia             Europe & Central Asia         3758       16381  20139
10 Aruba               Latin America & Caribbean      142           0    142
# ℹ 206 more rows
…
Data reshaping

Look at the code below… How is the data transformed to get to fisheries_longer? What happened to the total column? What happened to the capture and aquaculture data?

your response here

fisheries_longer <- fisheries |>
  select(-total) |>
  pivot_longer(cols = capture:aquaculture, 
               names_to = "type",
               values_to = "amount")

fisheries_longer

# A tibble: 432 × 4
   country        region                     type        amount
   <chr>          <chr>                      <chr>        <dbl>
 1 Afghanistan    South Asia                 capture       1000
 2 Afghanistan    South Asia                 aquaculture   1200
 3 Albania        Europe & Central Asia      capture       7886
 4 Albania        Europe & Central Asia      aquaculture    950
 5 Algeria        Middle East & North Africa capture      95000
 6 Algeria        Middle East & North Africa aquaculture   1361
 7 American Samoa East Asia & Pacific        capture       3047
 8 American Samoa East Asia & Pacific        aquaculture     20
 9 Andorra        Europe & Central Asia      capture          0
10 Andorra        Europe & Central Asia      aquaculture      0
# ℹ 422 more rows
…
